<svg xmlns="http://www.w3.org/2000/svg" width="136.492" height="99.971" viewBox="0 0 136.492 99.971">
  <g id="Group_46" data-name="Group 46" transform="translate(-1163.144 -1423.977)">
    <g id="Group_44" data-name="Group 44">
      <path id="Path_3" data-name="Path 3" d="M1243.384,1474.961l11.869,21.706,24.907.478,13.039-21.228-11.869-21.705-24.908-.478Z" fill="none" stroke="#fff" stroke-miterlimit="10" stroke-width="3.1"/>
      <path id="Path_4" data-name="Path 4" d="M1207.388,1452.83l11.869,21.705,24.907.478,13.039-21.228-11.869-21.706-24.908-.478Z" fill="none" stroke="#fff" stroke-miterlimit="10" stroke-width="3.1"/>
      <circle id="Ellipse_15" data-name="Ellipse 15" cx="5.939" cy="5.939" r="5.939" transform="translate(1238.478 1426.198)" fill="#eafaff" stroke="#26bee6" stroke-miterlimit="10" stroke-width="3.1"/>
      <circle id="Ellipse_16" data-name="Ellipse 16" cx="5.939" cy="5.939" r="5.939" transform="translate(1250.212 1447.658)" fill="#eafaff" stroke="#26bee6" stroke-miterlimit="10" stroke-width="3.1"/>
      <circle id="Ellipse_17" data-name="Ellipse 17" cx="5.939" cy="5.939" r="5.939" transform="translate(1237.685 1468.446)" fill="#fff" stroke="#4dc9eb" stroke-miterlimit="10" stroke-width="3.1"/>
      <circle id="Ellipse_18" data-name="Ellipse 18" cx="5.939" cy="5.939" r="5.939" transform="translate(1213.424 1467.775)" fill="#fff" stroke="#4dc9eb" stroke-miterlimit="10" stroke-width="3.1"/>
      <circle id="Ellipse_19" data-name="Ellipse 19" cx="5.939" cy="5.939" r="5.939" transform="translate(1201.689 1446.315)" fill="#fff" stroke="#4dc9eb" stroke-miterlimit="10" stroke-width="3.1"/>
      <circle id="Ellipse_20" data-name="Ellipse 20" cx="5.939" cy="5.939" r="5.939" transform="translate(1214.216 1425.527)" fill="#eafaff" stroke="#26bee6" stroke-miterlimit="10" stroke-width="3.1"/>
      <circle id="Ellipse_21" data-name="Ellipse 21" cx="5.939" cy="5.939" r="5.939" transform="translate(1273.681 1490.578)" fill="#eafaff" stroke="#26bee6" stroke-miterlimit="10" stroke-width="3.1"/>
      <circle id="Ellipse_22" data-name="Ellipse 22" cx="5.939" cy="5.939" r="5.939" transform="translate(1249.42 1489.906)" fill="#80d9f1" stroke="#4dc9eb" stroke-miterlimit="10" stroke-width="3.1"/>
      <circle id="Ellipse_23" data-name="Ellipse 23" cx="5.939" cy="5.939" r="5.939" transform="translate(1274.474 1448.33)" fill="#eafaff" stroke="#26bee6" stroke-miterlimit="10" stroke-width="3.1"/>
      <circle id="Ellipse_24" data-name="Ellipse 24" cx="5.939" cy="5.939" r="5.939" transform="translate(1286.208 1469.79)" fill="#eafaff" stroke="#26bee6" stroke-miterlimit="10" stroke-width="3.1"/>
    </g>
    <g id="Group_45" data-name="Group 45" transform="translate(-1 -1)">
      <path id="Path_5" data-name="Path 5" d="M1207.388,1495.9l11.869,21.705,24.907.478,13.039-21.227-11.869-21.706-24.908-.478Z" fill="none" stroke="#fff" stroke-miterlimit="10" stroke-width="3.1"/>
      <path id="Path_6" data-name="Path 6" d="M1171.392,1473.772l11.869,21.706,24.908.478,13.039-21.228-11.869-21.705-24.908-.478Z" fill="none" stroke="#fff" stroke-miterlimit="10" stroke-width="3.1"/>
      <circle id="Ellipse_25" data-name="Ellipse 25" cx="5.939" cy="5.939" r="5.939" transform="translate(1202.482 1447.141)" fill="#fff" stroke="#26bee6" stroke-miterlimit="10" stroke-width="3.1"/>
      <circle id="Ellipse_26" data-name="Ellipse 26" cx="5.939" cy="5.939" r="5.939" transform="translate(1214.216 1468.601)" fill="#fff" stroke="#26bee6" stroke-miterlimit="10" stroke-width="3.1"/>
      <circle id="Ellipse_27" data-name="Ellipse 27" cx="5.939" cy="5.939" r="5.939" transform="translate(1201.689 1489.389)" fill="#fff" stroke="#26bee6" stroke-miterlimit="10" stroke-width="3.1"/>
      <circle id="Ellipse_28" data-name="Ellipse 28" cx="5.939" cy="5.939" r="5.939" transform="translate(1177.428 1488.717)" fill="#fff" stroke="#26bee6" stroke-miterlimit="10" stroke-width="3.1"/>
      <circle id="Ellipse_29" data-name="Ellipse 29" cx="5.939" cy="5.939" r="5.939" transform="translate(1165.693 1467.257)" fill="#fff" stroke="#26bee6" stroke-miterlimit="10" stroke-width="3.1"/>
      <circle id="Ellipse_30" data-name="Ellipse 30" cx="5.939" cy="5.939" r="5.939" transform="translate(1178.22 1446.469)" fill="#fff" stroke="#26bee6" stroke-miterlimit="10" stroke-width="3.1"/>
      <circle id="Ellipse_31" data-name="Ellipse 31" cx="5.939" cy="5.939" r="5.939" transform="translate(1237.685 1511.52)" fill="#fff" stroke="#26bee6" stroke-miterlimit="10" stroke-width="3.1"/>
      <circle id="Ellipse_32" data-name="Ellipse 32" cx="5.939" cy="5.939" r="5.939" transform="translate(1213.424 1510.849)" fill="#fff" stroke="#26bee6" stroke-miterlimit="10" stroke-width="3.1"/>
      <circle id="Ellipse_33" data-name="Ellipse 33" cx="5.939" cy="5.939" r="5.939" transform="translate(1238.478 1469.272)" fill="#fff" stroke="#26bee6" stroke-miterlimit="10" stroke-width="3.1"/>
      <circle id="Ellipse_34" data-name="Ellipse 34" cx="5.939" cy="5.939" r="5.939" transform="translate(1250.212 1490.732)" fill="#fff" stroke="#26bee6" stroke-miterlimit="10" stroke-width="3.1"/>
    </g>
  </g>
</svg>
